{
    "gnb":{
        "banner_icon": "http://steps.adqua.co.kr/promotion/app/images/gnb_button_201703.png",
        "url": "http://steps.adqua.co.kr/promotion/app/201703/afterlogin.html?shownomore=no"
    },
    "intro":{
        "title": "STEPS 베타테스터가 되신걸 환영합니다!",
        "url": "http://steps.adqua.co.kr/promotion/app/201703/intro.html"
    },
    "afterlogin":{
        "title": "STEPS 한줄후기를 남겨주세요!",
        "url": "http://steps.adqua.co.kr/promotion/app/201703/afterlogin.html",
        "delay": "60"
    }
}
